11783 0x5 1
11772 1x5 1
11771 2x5 1
11759 3x5 1
11758 4x5 1

11782 0x4 1
11773 1x4 0
11770 2x4 0
11760 3x4 0
11757 4x4 1

11781 0x3 1
11774 1x3 0
11769 2x3 0
11761 3x3 0
11756 4x3 1

11780 0x2 1
11775 1x2 0
11768 2x2 0
11762 3x2 0
11755 4x2 1

11779 0x1 1
11776 1x1 0
11766 2x1 0
11763 3x1 0
11754 4x1 1

11778 0x0 1
11777 1x0 1
11765 2x0 1
11764 3x0 1
11753 4x0 1
