# columns: cellX cellY chunks
0 0 10543-001:10543-002:10543-003:10543-004:10543-005
0 1 10542-001:10542-002:10542-003:10542-004
0 2 10526-001:10526-002:10526-003:10526-004:10526-005
0 3 10527-001:10527-002:10527-003:10527-004:10527-005
0 4 10528-001:10528-002:10528-003:10528-004:10528-005
0 5 10529-001:10529-002:10529-003:10529-004:10529-005
1 0 10544-001:10544-002:10544-003:10544-004:10544-005
1 1 10541-001:10541-002:10541-003:10541-004:10541-005
1 2 10525-001:10525-002:10525-003:10525-004:10525-005
1 3 10518-001:10518-002:10518-003:10518-004:10518-005
1 4 10519-001:10519-002:10519-003:10519-004:10519-005
1 5 10530-001:10530-002:10530-003:10530-004:10530-005
2 0 10545-001:10545-002:10545-003:10545-004:10545-005
2 1 10540-001:10540-002:10540-003:10540-004:10540-005
2 2 10524-001:10524-002:10524-003:10524-004:10524-005
2 3 10517-001:10517-002:10517-003:10517-004:10517-005:10517-006
2 4 10520-001:10520-002:10520-003:10520-004:10520-005
2 5 10531-001:10531-002:10531-003:10531-004
3 0 10546-001:10546-002:10546-003:10546-004:10546-005
3 1 10539-001:10539-002:10539-003:10539-004:10539-005
3 2 10523-001:10523-002:10523-003:10523-004:10523-005
3 3 10522-001:10522-002:10522-003:10522-004:10522-005
3 4 10521-001:10521-002:10521-003:10521-004:10521-005
3 5 10532-001:10532-002:10532-003:10532-004:10532-005
4 0 10547-001:10547-002:10547-003:10547-004:10547-005
4 1 10538-001:10538-002:10538-003:10538-004:10538-005
4 2 10537-001:10537-002:10537-003:10537-004:10537-005
4 3 10536-001:10536-002:10536-003:10536-004:10536-005
4 4 10535-001:10535-002:10535-003:10535-004:10535-005
4 5 10533-001:10533-002:10533-003:10533-004:10534-001:10534-002:10534-003:10534-004:10534-005
