{
  "type": "record",
  "name": "Event",
  "fields": [
    {
      "name": "_collectionMoyalSADCWfFitParameters",
      "type": {
        "type": "array",
        "items": {
          "type": "record",
          "name": "MoyalSADCWfFitParameters",
          "fields": [
            {
              "name": "mu",
              "doc": "Centers of peaks",
              "type": "float"
            },
            {
              "name": "sigma",
              "doc": "Widths of peaks",
              "type": "float"
            },
            {
              "name": "S",
              "doc": "Scaling factor",
              "type": "float"
            },
            {
              "name": "interval",
              "doc": "Validity interval of this Moyal fit",
              "type": {
                "type": "fixed",
                "size": 8,
                "name": "array_float_2"
              }
            }
          ]
        }
      }
    },
    {
      "name": "_collectionGaussianSADCFitParameters",
      "type": {
        "type": "array",
        "items": {
          "type": "record",
          "name": "GaussianSADCFitParameters",
          "fields": [
            {
              "name": "mu",
              "doc": "Centers of peaks",
              "type": "float"
            },
            {
              "name": "sigma",
              "doc": "Widths of peaks",
              "type": "float"
            },
            {
              "name": "S",
              "doc": "Scaling factor",
              "type": "float"
            },
            {
              "name": "interval",
              "doc": "Validity interval of this Gaussian (pre-)fit",
              "type": "array_float_2"
            }
          ]
        }
      }
    },
    {
      "name": "_collectionMSADCDFFTCoefficients",
      "type": {
        "type": "array",
        "items": {
          "type": "record",
          "name": "MSADCDFFTCoefficients",
          "fields": [
            {
              "name": "real",
              "doc": "Real part of signal Fourier transform coefficients",
              "type": {
                "type": "fixed",
                "size": 128,
                "name": "array_double_16"
              }
            },
            {
              "name": "imag",
              "doc": "Imag. part of signal Fourier transform coefficients, 1st elem is reserved",
              "type": "array_double_16"
            }
          ]
        }
      }
    },
    {
      "name": "_collectionMSADCPeak",
      "type": {
        "type": "array",
        "items": {
          "type": "record",
          "name": "MSADCPeak",
          "fields": [
            {
              "name": "time",
              "doc": "Waveform peak's time estimate",
              "type": "float"
            },
            {
              "name": "timeErr",
              "doc": "Waveform peak's time estimate error",
              "type": "float"
            },
            {
              "name": "timeClusterLabel",
              "doc": "Waveform max time cluster label",
              "type": "int"
            },
            {
              "name": "amp",
              "doc": "Waveform peak's amp/square estimate",
              "type": "float"
            },
            {
              "name": "ampErr",
              "doc": "Waveform peak's amp/square estimate error",
              "type": "float"
            },
            {
              "name": "sumCoarse",
              "doc": "Waveform peak's coarse integral estimate (usually, by interpolation)",
              "type": "float"
            },
            {
              "name": "sumFine",
              "doc": "Waveform peak's fine integral estimate (usually, by fitting with model)",
              "type": "float"
            },
            {
              "name": "sumFineErr",
              "doc": "Waveform peak's fine integral estimate error",
              "type": "float"
            },
            {
              "name": "chi2",
              "doc": "Peak fitting chi2",
              "type": "double"
            },
            {
              "name": "ndf",
              "doc": "Peak fitting NDF",
              "type": "int"
            },
            {
              "name": "moyalFit",
              "doc": "Results of peak fitting with Moyal function.",
              "type": {
                "type": "fixed",
                "size": 8,
                "name": "_refMoyalSADCWfFitParameters",
                "doc": "ID of an item in collection of MoyalSADCWfFitParameters instances"
              }
            },
            {
              "name": "gaussianFit",
              "doc": "Results of peak fitting with Gaussian PDF",
              "type": {
                "type": "fixed",
                "size": 8,
                "name": "_refGaussianSADCFitParameters",
                "doc": "ID of an item in collection of GaussianSADCFitParameters instances"
              }
            }
          ]
        }
      }
    },
    {
      "name": "_collectionRawDataSADC",
      "type": {
        "type": "array",
        "items": {
          "type": "record",
          "name": "RawDataSADC",
          "fields": [
            {
              "name": "wave",
              "doc": "Array of measured waveform samples",
              "type": {
                "type": "fixed",
                "size": 128,
                "name": "array_StdFloat_t_32"
              }
            },
            {
              "name": "fft",
              "doc": "Discrete dourer transform results",
              "type": {
                "type": "fixed",
                "size": 8,
                "name": "_refMSADCDFFTCoefficients",
                "doc": "ID of an item in collection of MSADCDFFTCoefficients instances"
              }
            },
            {
              "name": "pedestals",
              "doc": "ADC amplitude pedestal values (zeroes) for even and odd sampler.",
              "type": {
                "type": "fixed",
                "size": 8,
                "name": "array_StdFloat_t_2"
              }
            },
            {
              "name": "sum",
              "doc": "Computed sum of the waveform, number of channels",
              "type": "float"
            },
            {
              "name": "maxSample",
              "doc": "Number of waveform's sample considered as global maximum.",
              "type": "int"
            },
            {
              "name": "maxAmp",
              "doc": "Maximum of the waveform in raw SADC units.",
              "type": "float"
            },
            {
              "name": "maxAmpError",
              "doc": "Error of the waveform amplitude max. in raw SADC units.",
              "type": "float"
            },
            {
              "name": "canBeZero",
              "doc": "Zero probability measure (0-1)",
              "type": "float"
            },
            {
              "name": "ledCorr",
              "doc": "Correction by LED in use, ratio",
              "type": "float"
            },
            {
              "name": "calibCoeff",
              "doc": "Calibration coefficient in use, chan/MeV",
              "type": "float"
            },
            {
              "name": "ampThreshold",
              "doc": "Peak-selection threshold, chan",
              "type": "float"
            },
            {
              "name": "maxima",
              "doc": "Peaks found in the waveform, used in reconstruction.",
              "type": {
                "type": "array",
                "items": {
                  "type": "record",
                  "name": "MSADCPeakByintEntry",
                  "fields": [
                    {
                      "type": "int",
                      "name": "key"
                    },
                    {
                      "type": {
                        "type": "fixed",
                        "size": 8,
                        "name": "_refMSADCPeak",
                        "doc": "ID of an item in collection of MSADCPeak instances"
                      },
                      "name": "value"
                    }
                  ]
                }
              }
            }
          ]
        }
      }
    },
    {
      "name": "_collectionSADCHit",
      "type": {
        "type": "array",
        "items": {
          "type": "record",
          "name": "SADCHit",
          "fields": [
            {
              "name": "rawData",
              "doc": "Hit raw data (as got from DDD digit)",
              "type": {
                "type": "fixed",
                "size": 8,
                "name": "_refRawDataSADC",
                "doc": "ID of an item in collection of RawDataSADC instances"
              }
            },
            {
              "name": "eDep",
              "doc": "Reconstructed energy deposition, MeV.",
              "type": "float"
            },
            {
              "name": "eDepError",
              "doc": "Error estimation of reconstructed energy deposition (sigma), MeV",
              "type": "float"
            },
            {
              "name": "time",
              "doc": "Reconstructed time of hit, nanoseconds",
              "type": "float"
            },
            {
              "name": "timeError",
              "doc": "Estimateion of reconstructed time error (sigma), nanoseconds",
              "type": "float"
            }
          ]
        }
      }
    },
    {
      "name": "_collectionRawDataAPV",
      "type": {
        "type": "array",
        "items": {
          "type": "record",
          "name": "RawDataAPV",
          "fields": [
            {
              "name": "wireNo",
              "doc": "Triggered wire number (detector's channel)",
              "type": "int"
            },
            {
              "name": "chip",
              "doc": "chip ID wrt DDD DAQ",
              "type": "int"
            },
            {
              "name": "srcID",
              "doc": "source ID wrt DDD DAQ",
              "type": "int"
            },
            {
              "name": "adcID",
              "doc": "adc ID wrt DDD DAQ",
              "type": "int"
            },
            {
              "name": "chipChannel",
              "doc": "channel number inside chip (before remapping)",
              "type": "int"
            },
            {
              "name": "timeTag",
              "doc": "Time with the respect to trigger time",
              "type": "long"
            },
            {
              "name": "samples",
              "doc": "Measured amplitude samples on a wire",
              "type": {
                "type": "fixed",
                "size": 12,
                "name": "array_uint32_t_3"
              }
            }
          ]
        }
      }
    },
    {
      "name": "_collectionAPVHit",
      "type": {
        "type": "array",
        "items": {
          "type": "record",
          "name": "APVHit",
          "fields": [
            {
              "name": "rawData",
              "doc": "Hit raw data (as got from DDD digit)",
              "type": {
                "type": "fixed",
                "size": 8,
                "name": "_refRawDataAPV",
                "doc": "ID of an item in collection of RawDataAPV instances"
              }
            },
            {
              "name": "maxCharge",
              "doc": "Hit max charge wrt APV waveform",
              "type": "double"
            },
            {
              "name": "timeRise",
              "doc": "Time of rising front\n\\todo seemed to be not used; remove?\n",
              "type": "double"
            },
            {
              "name": "a02",
              "doc": "APV samples amplitude ratio a0/a2",
              "type": "double"
            },
            {
              "name": "a12",
              "doc": "APV samples amplitude ratio a1/a2",
              "type": "double"
            },
            {
              "name": "t02",
              "doc": "Tangent values of raising front, at a0 and a2\n\\todo More doc on it\n",
              "type": "double"
            },
            {
              "name": "t12",
              "doc": "Tangent values of raising front, at a1 and a2\n\\todo More doc on it\n",
              "type": "double"
            },
            {
              "name": "t02sigma",
              "doc": "Error estimation of tangent raising front\n\\todo More doc on it\n",
              "type": "double"
            },
            {
              "name": "t12sigma",
              "doc": "Error estimation of tangent raising front\n\\todo More doc on it\n",
              "type": "double"
            },
            {
              "name": "time",
              "doc": "Estimated hit time, [SADC sample #]",
              "type": "double"
            },
            {
              "name": "timeError",
              "doc": "Error of hit time estimation, [SADC sample #]",
              "type": "double"
            }
          ]
        }
      }
    },
    {
      "name": "_collectionAPVCluster",
      "type": {
        "type": "array",
        "items": {
          "type": "record",
          "name": "APVCluster",
          "fields": [
            {
              "name": "hits",
              "doc": "Basic APV hits definign the cluster",
              "type": {
                "type": "array",
                "items": {
                  "type": "record",
                  "name": "APVHitByAPVPhysWire_tEntry",
                  "fields": [
                    {
                      "type": "int",
                      "name": "key"
                    },
                    {
                      "type": {
                        "type": "fixed",
                        "size": 8,
                        "name": "_refAPVHit",
                        "doc": "ID of an item in collection of APVHit instances"
                      },
                      "name": "value"
                    }
                  ]
                }
              }
            },
            {
              "name": "position",
              "doc": "Coordinate of cluster's center, wire number units",
              "type": "double"
            },
            {
              "name": "positionError",
              "doc": "Coordinate uncertainty, wire units",
              "type": "double"
            },
            {
              "name": "charge",
              "doc": "Cluster charge sum (unnormed), sum of all hit's amplitude measurements",
              "type": "double"
            },
            {
              "name": "mcTruePosition",
              "doc": "True position of track intersection",
              "type": {
                "type": "fixed",
                "size": 24,
                "name": "array_double_3"
              }
            },
            {
              "name": "time",
              "doc": "Cluster time\n\\todo units?\n",
              "type": "double"
            },
            {
              "name": "timeError",
              "doc": "Cluster time estimated error\n\\todo units?\n",
              "type": "double"
            }
          ]
        }
      }
    },
    {
      "name": "_collectionStwTDCRawData",
      "type": {
        "type": "array",
        "items": {
          "type": "record",
          "name": "StwTDCRawData",
          "fields": [
            {
              "name": "wireNo",
              "doc": "Triggered wire number (physical, decoded)",
              "type": "int"
            },
            {
              "name": "time",
              "doc": "Time on a wire (internal units)",
              "type": "int"
            },
            {
              "name": "timeDecoded",
              "doc": "Time in ns with the respect to trigger time",
              "type": "double"
            }
          ]
        }
      }
    },
    {
      "name": "_collectionStwMCInfo",
      "type": {
        "type": "array",
        "items": {
          "type": "record",
          "name": "StwMCInfo",
          "fields": [
            {
              "name": "entryPoint",
              "doc": "global coordinates of entry point",
              "type": {
                "type": "fixed",
                "size": 12,
                "name": "array_float_3"
              }
            },
            {
              "name": "exitPoint",
              "doc": "global coordinates of exit point",
              "type": "array_float_3"
            },
            {
              "name": "eDep",
              "doc": "energy deposition of incident particle",
              "type": "double"
            },
            {
              "name": "trackE",
              "doc": "energy of initiating track",
              "type": "float"
            },
            {
              "name": "particlePDG",
              "doc": "PDG code of initiating particle",
              "type": "int"
            },
            {
              "name": "geant4TrackID",
              "doc": "Geant4 track ID",
              "type": "int"
            },
            {
              "name": "r",
              "doc": "distance according to MC geometry",
              "type": "float"
            },
            {
              "name": "u",
              "doc": "measured (local) coordinate according to MC geometry",
              "type": "float"
            }
          ]
        }
      }
    },
    {
      "name": "_collectionStwTDCHit",
      "type": {
        "type": "array",
        "items": {
          "type": "record",
          "name": "StwTDCHit",
          "fields": [
            {
              "name": "rawData",
              "doc": "Raw data of the straw hit",
              "type": {
                "type": "fixed",
                "size": 8,
                "name": "_refStwTDCRawData",
                "doc": "ID of an item in collection of StwTDCRawData instances"
              }
            },
            {
              "name": "distance",
              "doc": "estimated by time (ambiguous) distance from the wire (isochrone surface radius)",
              "type": "float"
            },
            {
              "name": "distanceError",
              "doc": "error of distance estimation",
              "type": "float"
            },
            {
              "name": "mcInfo",
              "doc": "A \"true\" MC information",
              "type": {
                "type": "fixed",
                "size": 8,
                "name": "_refStwMCInfo",
                "doc": "ID of an item in collection of StwMCInfo instances"
              }
            },
            {
              "name": "correctedTime",
              "doc": "Time corrected for T0",
              "type": "float"
            }
          ]
        }
      }
    },
    {
      "name": "_collectionRawDataF1",
      "type": {
        "type": "array",
        "items": {
          "type": "record",
          "name": "RawDataF1",
          "fields": [
            {
              "name": "sourceID",
              "doc": "DAQ channel source ID",
              "type": "int"
            },
            {
              "name": "portID",
              "doc": "DAQ port ID",
              "type": "int"
            },
            {
              "name": "channel",
              "doc": "DAQ detector channel number",
              "type": "int"
            },
            {
              "name": "channelPosition",
              "doc": "channel position",
              "type": "int"
            },
            {
              "name": "time",
              "doc": "Time associated with the channel",
              "type": "int"
            },
            {
              "name": "timeUnit",
              "doc": "Time unit",
              "type": "double"
            },
            {
              "name": "timeDecoded",
              "doc": "time in ns wrt trigger time",
              "type": "double"
            },
            {
              "name": "timeReference",
              "doc": "...",
              "type": "double"
            }
          ]
        }
      }
    },
    {
      "name": "_collectionF1Hit",
      "type": {
        "type": "array",
        "items": {
          "type": "record",
          "name": "F1Hit",
          "fields": [
            {
              "name": "rawData",
              "doc": "Raw data as was decoded from DAQ for F1 chip",
              "type": {
                "type": "fixed",
                "size": 8,
                "name": "_refRawDataF1",
                "doc": "ID of an item in collection of RawDataF1 instances"
              }
            },
            {
              "name": "hitPosition",
              "doc": "Reconstructed position of hit",
              "type": "double"
            }
          ]
        }
      }
    },
    {
      "name": "_collectionCaloHit",
      "type": {
        "type": "array",
        "items": {
          "type": "record",
          "name": "CaloHit",
          "fields": [
            {
              "name": "hits",
              "doc": "Elementary hits summed up into this calo hit",
              "type": {
                "type": "array",
                "items": {
                  "type": "record",
                  "name": "SADCHitByDetIDEntry",
                  "fields": [
                    {
                      "type": {
                        "type": "fixed",
                        "size": 4,
                        "name": "DetID"
                      },
                      "name": "key"
                    },
                    {
                      "type": {
                        "type": "fixed",
                        "size": 8,
                        "name": "_refSADCHit",
                        "doc": "ID of an item in collection of SADCHit instances"
                      },
                      "name": "value"
                    }
                  ]
                }
              }
            },
            {
              "name": "eDep",
              "doc": "Energy deposition sum, MeV",
              "type": "double"
            },
            {
              "name": "eDepError",
              "doc": "Estimated energy deposition's error",
              "type": "double"
            }
          ]
        }
      }
    },
    {
      "name": "_collectionDriftDetScoreFeatures",
      "type": {
        "type": "array",
        "items": {
          "type": "record",
          "name": "DriftDetScoreFeatures",
          "fields": [
            {
              "name": "distance",
              "doc": "Estimated distance, cm",
              "type": "float"
            },
            {
              "name": "distanceError",
              "doc": "Error of distance estimation, cm",
              "type": "float"
            },
            {
              "name": "maxDistance",
              "doc": "max distance (cm) from the wire; typically a wire's stride",
              "type": "float"
            },
            {
              "name": "wireCoordinates",
              "doc": "wire spatial coordinates (two endpoints)",
              "type": {
                "type": "fixed",
                "size": 24,
                "name": "array_float_6"
              }
            },
            {
              "name": "sideHitUError",
              "doc": "unbiased error on other side of isochrone",
              "type": "float"
            },
            {
              "name": "sideHitBError",
              "doc": "biased error on other side of isochrone",
              "type": "float"
            },
            {
              "name": "sideWeight",
              "doc": "tracking weight of other side isochrone",
              "type": "float"
            },
            {
              "name": "uError",
              "doc": "residuals wrt drift center (e.g. wire)",
              "type": "array_float_3"
            }
          ]
        }
      }
    },
    {
      "name": "_collectionMCTrueTrackScore",
      "type": {
        "type": "array",
        "items": {
          "type": "record",
          "name": "MCTrueTrackScore",
          "fields": [
            {
              "name": "globalPosition",
              "doc": "Unsmeared true intersection 3D point that generated this score",
              "type": "array_float_3"
            },
            {
              "name": "geant4TrackID",
              "doc": "(only for MC) Geant4 track ID for this score",
              "type": "int"
            }
          ]
        }
      }
    },
    {
      "name": "_collectionTrackScore",
      "type": {
        "type": "array",
        "items": {
          "type": "record",
          "name": "TrackScore",
          "fields": [
            {
              "name": "hitRefs",
              "doc": "Collection of hits this score is built from",
              "type": {
                "type": "array",
                "items": {
                  "type": "record",
                  "name": "UnionsByDetID",
                  "doc": "Union of apvCluster, stwtdcHit, caloHit, f1Hit, score",
                  "fields": [
                    {
                      "name": "key",
                      "type": "DetID"
                    },
                    {
                      "name": "value",
                      "type": [
                        "null",
                        {
                          "type": "fixed",
                          "size": 8,
                          "name": "_refAPVCluster",
                          "doc": "ID of an item in collection of APVCluster instances"
                        },
                        {
                          "type": "fixed",
                          "size": 8,
                          "name": "_refStwTDCHit",
                          "doc": "ID of an item in collection of StwTDCHit instances"
                        },
                        {
                          "type": "fixed",
                          "size": 8,
                          "name": "_refCaloHit",
                          "doc": "ID of an item in collection of CaloHit instances"
                        },
                        {
                          "type": "fixed",
                          "size": 8,
                          "name": "_refF1Hit",
                          "doc": "ID of an item in collection of F1Hit instances"
                        },
                        {
                          "type": "fixed",
                          "size": 8,
                          "name": "_refTrackScore",
                          "doc": "ID of an item in collection of TrackScore instances"
                        }
                      ]
                    }
                  ]
                }
              }
            },
            {
              "name": "lR",
              "doc": "Local track (point) coordinates, up to three: u, v, w, normalized to (-0.5/0.5)",
              "type": "array_float_3"
            },
            {
              "name": "gR",
              "doc": "Assumed global coordinates of track point, MRS: x, y, z, [cm]",
              "type": "array_float_3"
            },
            {
              "name": "lRErr",
              "doc": "Local track uncertainties, up to three: u, v, w, normalized",
              "type": "array_float_3"
            },
            {
              "name": "driftFts",
              "doc": "Supplementary data for drift detectors.",
              "type": {
                "type": "fixed",
                "size": 8,
                "name": "_refDriftDetScoreFeatures",
                "doc": "ID of an item in collection of DriftDetScoreFeatures instances"
              }
            },
            {
              "name": "time",
              "doc": "Hit time, global to event (averaged on hits or provided by MC)",
              "type": "float"
            },
            {
              "name": "mcTruth",
              "doc": "Monte-Carlo true values",
              "type": {
                "type": "fixed",
                "size": 8,
                "name": "_refMCTrueTrackScore",
                "doc": "ID of an item in collection of MCTrueTrackScore instances"
              }
            }
          ]
        }
      }
    },
    {
      "name": "_collectionScoreFitInfo",
      "type": {
        "type": "array",
        "items": {
          "type": "record",
          "name": "ScoreFitInfo",
          "fields": [
            {
              "name": "score",
              "doc": "reference to subject track score object",
              "type": "_refTrackScore"
            },
            {
              "name": "lR",
              "doc": "Local track fit coordinates, metric",
              "type": "array_float_3"
            },
            {
              "name": "lRUErr",
              "doc": "Unbiased errors of the local coordinates, DRS, up to three: u, v, w, normalized",
              "type": "array_float_3"
            },
            {
              "name": "lRBErr",
              "doc": "Biased errors of the local coordinates, DRS, up to three: u, v, w, normalized",
              "type": "array_float_3"
            },
            {
              "name": "lTan",
              "doc": "track tangent(s) at intersection point, DRS",
              "type": "array_float_3"
            },
            {
              "name": "qop",
              "doc": "charge over momentum, [GeV/c]",
              "type": "float"
            },
            {
              "name": "time",
              "doc": "estimated fit time, [TODO: GenFit2 RK units?]",
              "type": "float"
            },
            {
              "name": "weight",
              "doc": "weight for track fit, if appliable",
              "type": "float"
            }
          ]
        }
      }
    },
    {
      "name": "_collectionTrackFitInfo",
      "type": {
        "type": "array",
        "items": {
          "type": "record",
          "name": "TrackFitInfo",
          "fields": [
            {
              "name": "positionSeed",
              "doc": "Initial position of the particle",
              "type": "array_double_3"
            },
            {
              "name": "momentumSeed",
              "doc": "Initial momentum of the particle motion (direction vector)",
              "type": "array_double_3"
            },
            {
              "name": "covarSeed",
              "doc": "Initial covariance matrix",
              "type": {
                "type": "fixed",
                "size": 48,
                "name": "array_double_6"
              }
            },
            {
              "name": "chi2",
              "doc": "chi-squared value of track fit",
              "type": "float"
            },
            {
              "name": "ndf",
              "doc": "Number of degrees of freedom of track fit",
              "type": "int"
            },
            {
              "name": "pval",
              "doc": "p-value of track fitting",
              "type": "float"
            }
          ]
        }
      }
    },
    {
      "name": "_collectionTrack",
      "type": {
        "type": "array",
        "items": {
          "type": "record",
          "name": "Track",
          "fields": [
            {
              "name": "scores",
              "doc": "Scores defining the track",
              "type": {
                "type": "array",
                "items": {
                  "type": "record",
                  "name": "ScoreFitInfoByDetIDEntry",
                  "fields": [
                    {
                      "type": "DetID",
                      "name": "key"
                    },
                    {
                      "type": {
                        "type": "fixed",
                        "size": 8,
                        "name": "_refScoreFitInfo",
                        "doc": "ID of an item in collection of ScoreFitInfo instances"
                      },
                      "name": "value"
                    }
                  ]
                }
              }
            },
            {
              "name": "momentum",
              "doc": "Initial momentum of the track",
              "type": "double"
            },
            {
              "name": "pdg",
              "doc": "Particle type PDG code",
              "type": "int"
            },
            {
              "name": "fitInfo",
              "doc": "General information of track fitting results",
              "type": {
                "type": "fixed",
                "size": 8,
                "name": "_refTrackFitInfo",
                "doc": "ID of an item in collection of TrackFitInfo instances"
              }
            },
            {
              "name": "zonePattern",
              "doc": "Bitmask of zones for the track",
              "type": "long"
            }
          ]
        }
      }
    },
    {
      "name": "_collectionMCTruthInfo",
      "type": {
        "type": "array",
        "items": {
          "type": "record",
          "name": "MCTruthInfo",
          "fields": [
            {
              "name": "weight",
              "doc": "A \"statistical weight\" of the event",
              "type": "double"
            },
            {
              "name": "beamPosition",
              "doc": "initializing particle initial position",
              "type": "array_double_3"
            },
            {
              "name": "beamMomentum",
              "doc": "initializing particle initial momentum",
              "type": "array_double_3"
            },
            {
              "name": "beamE0",
              "doc": "initializing particle initial full E (TODO: redundant?)",
              "type": "double"
            },
            {
              "name": "ecalEntryPoisition",
              "doc": "initializing particle initial full E (TODO: redundant?)",
              "type": "array_double_3"
            },
            {
              "name": "beamPDG",
              "doc": "PDG code of initializing particle",
              "type": "int"
            }
          ]
        }
      }
    },
    {
      "name": "_collectionVertex",
      "type": {
        "type": "array",
        "items": {
          "type": "record",
          "name": "Vertex",
          "fields": [
            {
              "name": "E0",
              "doc": "Initializing particle energy before DM producton [GeV]",
              "type": "double"
            },
            {
              "name": "E",
              "doc": "Initializing paritcle energy after DM production [GeV]",
              "type": "double"
            },
            {
              "name": "position",
              "doc": "DM production vertex",
              "type": "array_double_3"
            },
            {
              "name": "decayPosition",
              "doc": "DM decay position",
              "type": "array_double_3"
            },
            {
              "name": "lvEm",
              "doc": "Lorentz vector of electron in DM decay, e mas is 4th",
              "type": "array_double_3"
            },
            {
              "name": "lvEp",
              "doc": "Lorentz vector of positron in DM decay, e mas is 4th",
              "type": "array_double_3"
            },
            {
              "name": "initPDG",
              "doc": "PDG code of the initializing particle (MC typically)",
              "type": "int"
            },
            {
              "name": "DMTRID1",
              "doc": "(unknown MK's MC datum) \\todo",
              "type": "int"
            },
            {
              "name": "DMTRID2",
              "doc": "(unknown MK's MC datum) \\todo",
              "type": "int"
            }
          ]
        }
      }
    },
    {
      "name": "id",
      "doc": "Event's unique identifier.",
      "type": {
        "type": "fixed",
        "size": 8,
        "name": "EventID"
      }
    },
    {
      "name": "trigger",
      "doc": "Trigger code of this event",
      "type": "int"
    },
    {
      "name": "evType",
      "doc": "Event type code",
      "type": "int"
    },
    {
      "name": "time",
      "doc": "Event time represented by pair: seconds since epoch, usec",
      "type": {
        "type": "fixed",
        "size": 12,
        "name": "pair_time_t_uint32_t"
      }
    },
    {
      "name": "masterTime",
      "doc": "Relative event master time, [ns]",
      "type": "double"
    },
    {
      "name": "mcTruth",
      "doc": "\"True\" MC data",
      "type": {
        "type": "fixed",
        "size": 8,
        "name": "_refMCTruthInfo",
        "doc": "ID of an item in collection of MCTruthInfo instances"
      }
    },
    {
      "name": "sadcHits",
      "doc": "SADC-based detectors hits (ECAL, WCAL, HCAL, VETO, etc.)",
      "type": {
        "type": "array",
        "items": "SADCHitByDetIDEntry"
      }
    },
    {
      "name": "apvHits",
      "doc": "APV-based detectors hits (MuMegas, GEMs)",
      "type": {
        "type": "array",
        "items": {
          "type": "record",
          "name": "APVHitByDetIDEntry",
          "fields": [
            {
              "type": "DetID",
              "name": "key"
            },
            {
              "type": "_refAPVHit",
              "name": "value"
            }
          ]
        }
      }
    },
    {
      "name": "stwtdcHits",
      "doc": "NA64TDC-based detectors hits (STRAW)",
      "type": {
        "type": "array",
        "items": {
          "type": "record",
          "name": "StwTDCHitByDetIDEntry",
          "fields": [
            {
              "type": "DetID",
              "name": "key"
            },
            {
              "type": "_refStwTDCHit",
              "name": "value"
            }
          ]
        }
      }
    },
    {
      "name": "f1Hits",
      "doc": "F1-based detectors hits (BMS, etc.)",
      "type": {
        "type": "array",
        "items": {
          "type": "record",
          "name": "F1HitByDetIDEntry",
          "fields": [
            {
              "type": "DetID",
              "name": "key"
            },
            {
              "type": "_refF1Hit",
              "name": "value"
            }
          ]
        }
      }
    },
    {
      "name": "caloHits",
      "doc": "Energy deposition in calorimetric detectors (e.g. ECAL, WCAL, HCAL, etc)",
      "type": {
        "type": "array",
        "items": {
          "type": "record",
          "name": "CaloHitByDetIDEntry",
          "fields": [
            {
              "type": "DetID",
              "name": "key"
            },
            {
              "type": "_refCaloHit",
              "name": "value"
            }
          ]
        }
      }
    },
    {
      "name": "apvClusters",
      "doc": "\\brief 1D clusters (contains references to the APV hits)\n      \nCluster contains references to hits located in neighbouring group of\nwires.\nClusters here are indexed by \"incomplete\" detector ID that contains only\nchip ID, kin ID, number of station and projection ID (no wire number).\n",
      "type": {
        "type": "array",
        "items": {
          "type": "record",
          "name": "APVClusterByPlaneKeyEntry",
          "fields": [
            {
              "type": {
                "type": "fixed",
                "size": 4,
                "name": "PlaneKey"
              },
              "name": "key"
            },
            {
              "type": "_refAPVCluster",
              "name": "value"
            }
          ]
        }
      }
    },
    {
      "name": "trackScores",
      "doc": "Track point candidates collection",
      "type": {
        "type": "array",
        "items": {
          "type": "record",
          "name": "TrackScoreByDetIDEntry",
          "fields": [
            {
              "type": "DetID",
              "name": "key"
            },
            {
              "type": "_refTrackScore",
              "name": "value"
            }
          ]
        }
      }
    },
    {
      "name": "tracks",
      "doc": "Collection of reconstructed tracks",
      "type": {
        "type": "array",
        "items": {
          "type": "record",
          "name": "TrackByTrackIDEntry",
          "fields": [
            {
              "type": {
                "type": "fixed",
                "size": 4,
                "name": "TrackID"
              },
              "name": "key"
            },
            {
              "type": {
                "type": "fixed",
                "size": 8,
                "name": "_refTrack",
                "doc": "ID of an item in collection of Track instances"
              },
              "name": "value"
            }
          ]
        }
      }
    },
    {
      "name": "vertices",
      "doc": "Collection of vertices \\-- particle's birth/decay spatial points",
      "type": {
        "type": "array",
        "items": {
          "type": "record",
          "name": "VertexBysize_tEntry",
          "fields": [
            {
              "type": {
                "type": "fixed",
                "size": 8,
                "name": "size_t"
              },
              "name": "key"
            },
            {
              "type": {
                "type": "fixed",
                "size": 8,
                "name": "_refVertex",
                "doc": "ID of an item in collection of Vertex instances"
              },
              "name": "value"
            }
          ]
        }
      }
    }
  ],
  "namespace": null
}